{
  "images": [
    {
      "idiom": "universal",
      "scale": "1x",
      "filename": "IT.png"
    },
    {
      "idiom": "universal",
      "scale": "2x",
      "filename": "IT@2x.png"
    },
    {
      "idiom": "universal",
      "scale": "3x",
      "filename": "IT@3x.png"
    }
  ],
  "info": {
    "version": 1,
    "author": "xcode"
  }
}