{
  "images": [
    {
      "idiom": "universal",
      "scale": "1x",
      "filename": "ico_travel.png"
    },
    {
      "idiom": "universal",
      "scale": "2x",
      "filename": "ico_travel@2x.png"
    },
    {
      "idiom": "universal",
      "scale": "3x",
      "filename": "ico_travel@3x.png"
    }
  ],
  "info": {
    "version": 1,
    "author": "xcode"
  }
}